<?xml version="1.0" encoding="utf-8"?>
<!-- Generator: Adobe Illustrator 19.0.0, SVG Export Plug-In . SVG Version: 6.00 Build 0)  -->
<svg version="1.1" id="Layer_1" xmlns="http://www.w3.org/2000/svg" xmlns:xlink="http://www.w3.org/1999/xlink" x="0px" y="0px"
	 width="21px" height="21.1px" viewBox="-297 386 21 21.1" style="enable-background:new -297 386 21 21.1;" xml:space="preserve">
<style type="text/css">
	.st0{fill:#231E20;}
</style>
<path class="st0" d="M-278.4,406.9l-18.5-18.5c-0.1-0.1-0.1-0.4,0-0.5l1.8-1.8c0.1-0.1,0.4-0.1,0.5,0l18.5,18.5
	c0.1,0.1,0.1,0.4,0,0.5l-1.8,1.8C-278,407-278.2,407-278.4,406.9z"/>
<path class="st0" d="M-296.9,404.6l18.5-18.5c0.1-0.1,0.4-0.1,0.5,0l1.8,1.8c0.1,0.1,0.1,0.4,0,0.5l-18.5,18.5
	c-0.1,0.1-0.4,0.1-0.5,0l-1.8-1.8C-297,405-297,404.8-296.9,404.6z"/>
</svg>
